first_name;last_name;email;cpf;id
Inesita;hulkinho;ihulk0@samsung.com;039.686.093-10;wxvv6c2b4cQZBWEs
Muire;Babon;mbabon1@csn.com;039.686.093-10;
Karry;Quogan;kquogan2@seattletimes.com;446.937.558-69;
Brantley;Frankham;bfrankham3@hc360.com;204.301.742-09;
;Brazelton;rbrazelton4@huffingtonpost.com;417.243.148-82;
Tessie;Garth;tgarth5@va.gov;62.218.658/0001-21;
Gerry;McGunley;gmcgunley6_.com;62.218.63358/0001-21;
Fields;Brearty;fbrearty7@homestead.com;173.093.152-94;
Guido;Dunstan;gdunstan8@webeden.co.uk;920.286.482-95;
Millicent;Paik;mpaik9@prweb.com;645.016.672-06;